INDEX VERSION 1.131+/home/jaydeep/Training/Assignment/.metadata/.plugins/org.eclipse.jdt.core
1865797976.index
3145411185.index
1081442311.index
3054088672.index
1705300602.index
2934441153.index
2234052226.index
646308851.index
