<?xml version="1.0" encoding="UTF-8"?>
<session version="1.0">
<refactoring comment="Rename package &apos;com.kloud.Gym&apos; to &apos;com.kloud.gymrepo&apos;&#x0A;- Original project: &apos;GymApp&apos;&#x0A;- Original element: &apos;GymApp/src/main/java/com.kloud.Gym&apos;&#x0A;- Renamed element: &apos;GymApp/src/main/java/com.kloud.gymrepo&apos;&#x0A;- Update references to refactored element&#x0A;- Update textual occurrences in comments and strings" description="Rename package &apos;com.kloud.Gym&apos;" flags="589830" hierarchical="false" id="org.eclipse.jdt.ui.rename.package" input="/src\/main\/java=/optional=/true=/=/maven.pomderived=/true=/&lt;com.kloud.Gym" name="com.kloud.gymrepo" qualified="false" references="true" stamp="1647448831471" textual="false" version="1.0"/>
</session>